{"strings": {
    "cause": "Möjlig orsak",
    "action": "Åtgärdssteg",
    "start": "Tester vid start av maskinen",
    "not_conn": "Patienten är inte ansluten",
    "conn": "Patienten är ansluten",
    "disconn": "Patienten är bortkopplad",
    "instructions": "Instruktioner på skärmen",
    "information": "Information om larm",
    "identification": "Identifiering av larm",
    "layer": "Lager",
    "system": "System",
    "protocol": "Protokoll",
    "alarm_name": "Larmets benämnin",
    "alarm_expl": "Förklaring till larmet",
    "state": "Systemstatus",
        "message_number": "Felmeddelandenummer",
    "message_type": "Meddelandetyp",
    "version": "Version",    
    "occurs": "Uppstår när",
    "more_info1": "Mer info 1",
    "more_info2": "Mer info 2",
    "more_info3": "Mer info 3",
    "more_info4": "Mer info 4",
    "more_info5": "Mer info 5",
    "more_info6": "Mer info 6",
                "description": "Alarm Description (En placeholder)",
    "response": "System Response (En placeholder)",
    "causeaction": "Possible Cause/Operator Action (En placeholder)",
    "possible_cause": "Possible Cause (En placeholder)",
    "operator_action": "Operator Action (En placeholder)"
}}
