{"strings": {
    "cause": "Mulig årsag",
    "action": "Handlingstrin",
    "start": "Test ved start af maskinen",
    "not_conn": "Patient ikke tilsluttet",
    "conn": "Patient tilsluttet",
    "disconn": "Patient frakoblet",
    "instructions": "Skærminstruktioner",
    "information": "Alarminformation",
    "identification": "Alarmidentifikation",
    "layer": "Lag",
    "system": "System",
    "protocol": "Protokol",
    "alarm_name": "Alarmnavn",
    "alarm_expl": "Alarmbeskrivelse",
    "state": "Systemtilstand",
    "message_number": "Nummer",
    "version": "Version",
    "message_type": "Advarsels-/alarmmeddelelsestype",
    "occurs": "Forekommer under",
    "more_info1": "Mere info 1",
    "more_info2": "Mere info 2",
    "more_info3": "Mere info 3",
    "more_info4": "Mere info 4",
    "more_info5": "Mere info 5",
    "more_info6": "Mere info 6",
            "description": "Alarm Description (En placeholder)",
    "response": "System Response (En placeholder)",
    "causeaction": "Possible Cause/Operator Action (En placeholder)",
    "possible_cause": "Possible Cause (En placeholder)",
    "operator_action": "Operator Action (En placeholder)"
}}
