{"strings": {
    "cause": "Możliwa przyczyna",
    "action": "Czynności zaradcze",
    "start": "Testy rozruchowe urządzenia",
    "not_conn": "Pacjent nie jest podłączony",
    "conn": "Pacjent jest podłączony",
    "disconn": "Pacjent jest odłączony",
    "instructions": "Instrukcje wyświetlane na ekranie",
    "information": "Informacje o alarmach",
    "identification": "Identyfikacja alarmu",
    "layer": "Warstwa",
    "system": "System",
    "protocol": "Protokół",
    "alarm_name": "Nazwa alarmu",
    "alarm_expl": "Objaśnienie alarmu",
    "state": "Stan systemu",
        "message_number": "Numer komunikatu",
    "message_type": "Rodzaj komunikatu",
    "version": "Wersja",  
    "occurs": "Moment występowania",
    "more_info1": "Więcej informacji 1",
    "more_info2": "Więcej informacji 2",
    "more_info3": "Więcej informacji 3",
    "more_info4": "Więcej informacji 4",
    "more_info5": "Więcej informacji 5",
    "more_info6": "Więcej informacji 6",
                "description": "Alarm Description (En placeholder)",
    "response": "System Response (En placeholder)",
    "causeaction": "Possible Cause/Operator Action (En placeholder)",
    "possible_cause": "Possible Cause (En placeholder)",
    "operator_action": "Operator Action (En placeholder)"
}}
