{"strings": {
    "cause": "Mogelijke oorzaak",
    "action": "Actiestappen",
    "start": "Tests voor het opstarten van de machine",
    "not_conn": "Patiënt niet aangesloten",
    "conn": "Patiënt aangesloten",
    "disconn": "Patiënt ontkoppeld",
    "instructions": "Instructies op het scherm",
    "information": "Alarmgegevens",
    "identification": "Alarmidentificatie",
    "layer": "Laag",
    "system": "Systeem",
    "protocol": "Protocol",
    "alarm_name": "Alarmnaam",
    "alarm_expl": "Verklaring van alarm",
    "state": "Systeemstatus",
        "message_number": "Berichtnummer",
    "message_type": "Type bericht",
    "version": "Versie",  
    "occurs": "Treedt op tijdens",
    "more_info1": "Meer informatie 1",
    "more_info2": "Meer informatie 2",
    "more_info3": "Meer informatie 3",
    "more_info4": "Meer informatie 4",
    "more_info5": "Meer informatie 5",
    "more_info6": "Meer informatie 6",
                "description": "Alarm Description (En placeholder)",
    "response": "System Response (En placeholder)",
    "causeaction": "Possible Cause/Operator Action (En placeholder)",
    "possible_cause": "Possible Cause (En placeholder)",
    "operator_action": "Operator Action (En placeholder)"
}}
